Magic = [K1BIN]
Init PC = 1024 (0x00000400)
Data Segment Size = 9 (0x00000009)
.DATA 271
Text Segment Size = 29 (0x0000001d)
.TEXT 1024
[0x00000400] 0xfffffff4 Invalid Opcode = 31
[0x00000401] 0x0c000002 LDI %B 2
[0x00000402] 0x68000404 BSUB 0x00000404
[0x00000403] 0x20000000 ADD %A 
[0x00000404] 0x88000000 HALT 
